{
  "profiles": {
    "RabbitWriterService": {
      "commandName": "Project",
      "environmentVariables": {
        "DOTNET_ENVIRONMENT": "Development"
      }
    },
    "Docker": {
      "commandName": "Docker"
    }
  }
}